<svg width="715" height="412" viewBox="0 0 715 412" fill="none" xmlns="http://www.w3.org/2000/svg">
<g opacity="0.8">
<path d="M285.28 125.101L285.252 125.085L285.224 125.069C272.743 118.014 266.939 108.785 266.939 99.9566C266.939 91.128 272.743 81.8993 285.224 74.8445C297.722 67.7806 314.146 64.1943 330.534 64.1943C346.926 64.1943 363.052 67.7822 374.971 74.8253C386.9 81.8745 392.743 91.1159 392.87 99.9851C392.996 108.818 387.46 118.028 375.004 125.069C362.482 132.146 346.324 136.001 330.097 136.138C313.867 136.276 297.754 132.694 285.28 125.101Z" stroke="#EB016E" stroke-width="4"/>
</g>
</svg>
